2 Locations of Data Acquisition | lakeSR: Compiled Satellite Surface Reflectance and Surface Temperature for Lakes in the United States and US Territories
…
This is a different center computation from AquaSatv1 - original was based on HydroLakes,
which only encompassed xxx lakes, whereas lakeSR and the NHD integration touches yyy lakes.
Because the geometries of these lakes are significantly more complex, the DP calculation
done in ASv1 can not be made on NHD polygons unless they are simplified, losing the
benefit of the NHD resolution encompassing 1ha lakes.

Show a few examples of DP from LimnoSat with hydrolake boundary, nhd boundary, POI calculations.

## Simple feature collection with 10581 features and 4 fields
## Geometry type: POINT
## Dimension:     XY
## Bounding box:  xmin: -92.88343 ymin: 42.49517 xmax: -86.85592 ymax: 47.00643
## Geodetic CRS:  WGS 84
## # A tibble: 10,581 × 5
##    r_id     poi_dist_m nhd_source nhd_id                geometry
##    <chr>         <dbl> <chr>      <chr>              <POINT [°]>
##  1 0706_10        44.6 NHDPlusv2  13206564   (-91.2315 43.53854)
##  2 0706_16        95.3 NHDPlusv2  120051023  (-91.2135 43.52227)
##  3 0706_17        52.4 NHDPlusv2  120051024 (-91.21655 43.52216)
##  4 0706_46        95.7 NHDPlusv2  13206546  (-91.23078 43.55166)
##  5 0706_52        73.0 NHDPlusv2  13206560   (-91.2331 43.54233)
##  6 0706_64       179.  NHDPlusv2  13209622   (-91.21977 43.4488)
##  7 0706_77        38.9 NHDPlusv2  13209668   (-91.1957 43.41643)
##  8 0706_133      115.  NHDPlusv2  13637919  (-91.19231 43.39008)
##  9 0706_134       54.1 NHDPlusv2  13637923  (-91.19187 43.38697)
## 10 0706_135       34.9 NHDPlusv2  13637925  (-91.18961 43.38386)
## # ℹ 10,571 more rows
…
